[
  {
    "url": "51DPSQRB4YV7HSc7iLo0md",
    "bpm": 74
  },
  {
    "url": "7FwWq0lWUchWE1N7j0UhX4",
    "bpm": 75
  },
  {
    "url": "0A29jc7p5BLRoyShGfuHZU",
    "bpm": 76
  },
  {
    "url": "2SikDnkqf07WwnM6QtTsvY",
    "bpm": 77
  },
  {
    "url": "2sEofkfw8OfSkyJq4dkv0W",
    "bpm": 78
  },
  {
    "url": "3H9FzmAWOpuNQCkmGnD1Zr",
    "bpm": 79
  },
  {
    "url": "1407LZ8qiS52S2oc9JCbke",
    "bpm": 80
  },
  {
    "url": "0YtLgT6hymj93ck5IZJOJo",
    "bpm": 81
  },
  {
    "url": "6SdLx8ENxbLfVkGLIBwRRO",
    "bpm": 82
  },
  {
    "url": "7x7REHZVi2UdU6woH46R6T",
    "bpm": 83
  },
  {
    "url": "0abYpFoGUdZtI8oaTGwX9c",
    "bpm": 84
  },
  {
    "url": "1s8keFJQ2mDtNpW3gl5l2m",
    "bpm": 85
  },
  {
    "url": "4Dpp9NSaO1ASdj157XXiCy",
    "bpm": 86
  },
  {
    "url": "481B3xyOEEwgTRnSDOWWmj",
    "bpm": 87
  },
  {
    "url": "6cX6ntZufDyvk70FFxOSid",
    "bpm": 88
  },
  {
    "url": "5l7HHIYrDURnFciW0XjNdO",
    "bpm": 89
  },
  {
    "url": "5S79D9qeqyQPeCtbVX5iA0",
    "bpm": 90
  },
  {
    "url": "33StCARDckrSZ4uqTBiNmM",
    "bpm": 91
  },
  {
    "url": "1Pt13lZR2AHIcpRHA9OE56",
    "bpm": 92
  },
  {
    "url": "5fl0EsayyWkQaGEj3yRnn0",
    "bpm": 93
  },
  {
    "url": "0MrOpXZOlHGAcX2quYlqDQ",
    "bpm": 94
  },
  {
    "url": "248qtopjIMOItcR9dUGzE1",
    "bpm": 95
  },
  {
    "url": "1E6sfHeRlzTRfWlRwZXPOC",
    "bpm": 96
  },
  {
    "url": "0XQ6q5tosrN06aDFd1LF3n",
    "bpm": 97
  },
  {
    "url": "5MNCGD05EjJ9nOYJcsJHgn",
    "bpm": 98
  },
  {
    "url": "7GNdOSvZSPZJkHhuHPZ63c",
    "bpm": 99
  },
  {
    "url": "0wSTisi8sIrLB7hQiT055e",
    "bpm": 100
  },
  {
    "url": "0N243D5M9XAuiOmbMRTdPd",
    "bpm": 101
  },
  {
    "url": "4VEaxfADQBvDwJ5DpgX9zi",
    "bpm": 102
  },
  {
    "url": "075DTPlJtgRYCz1GcgTvIW",
    "bpm": 103
  },
  {
    "url": "5OBKdZ13Rv5TlABz6TayRf",
    "bpm": 104
  },
  {
    "url": "7xu5HFIDCKNgFpXESf1lAf",
    "bpm": 105
  },
  {
    "url": "2UIhnTJs9h1I3StkU9vwUc",
    "bpm": 106
  },
  {
    "url": "6lsa4JgPVxOdfBWXNe9TwK",
    "bpm": 107
  },
  {
    "url": "264u0X6M911Y026sfkGI50",
    "bpm": 108
  },
  {
    "url": "1LnyiLBC5bttkEReUWsG2S",
    "bpm": 109
  },
  {
    "url": "3ms1xInMO8al9TquvqBCCQ",
    "bpm": 110
  },
  {
    "url": "2oEIj4xWGdUEoFcrO7TZyY",
    "bpm": 111
  },
  {
    "url": "5wAUHFnwRVOabivKiYr41G",
    "bpm": 112
  },
  {
    "url": "0q4QaTa8Q26RPqffyHzevi",
    "bpm": 113
  },
  {
    "url": "6bKQQa1wocRqIkc77XzhdZ",
    "bpm": 114
  },
  {
    "url": "7CUq4GPTuKY9js9lu2WQn0",
    "bpm": 115
  },
  {
    "url": "6TDeVmKyBE7tUDnyyCcJ2a",
    "bpm": 116
  },
  {
    "url": "1gB1Zr0sKzxr4bEtAuwlB5",
    "bpm": 117
  },
  {
    "url": "2gZjSTSGfIUD6U7HXKjMy2",
    "bpm": 118
  },
  {
    "url": "4bAXawnGReOhL1MExLHrvW",
    "bpm": 119
  },
  {
    "url": "5F7uI6QJbCx1SDkanJ2Q0k",
    "bpm": 120
  },
  {
    "url": "7xunUmhIXhuufEsi8jPO5y",
    "bpm": 121
  },
  {
    "url": "0sG7JRdWHWLWQ2fPk3Ijlh",
    "bpm": 122
  },
  {
    "url": "0q2OYoETjACXCqSowlzlW9",
    "bpm": 123
  },
  {
    "url": "0yxK96Wl35Dmgl6hrZmRMQ",
    "bpm": 124
  },
  {
    "url": "6bV40MnOcQcKXqs04uJVaz",
    "bpm": 125
  },
  {
    "url": "1INJ56Kus4SQ0oMwiq8BkJ",
    "bpm": 126
  },
  {
    "url": "0kXxCGYa4FHeqtf0Yg54Fo",
    "bpm": 127
  },
  {
    "url": "0VxZ13NSdn7VACFT5tR3Pi",
    "bpm": 128
  },
  {
    "url": "5uCH8Ktdd22zDdavmmkxfe",
    "bpm": 129
  },
  {
    "url": "2R4hFgDXimxo8Y475RP4Rl",
    "bpm": 130
  },
  {
    "url": "20xy23QyCAn1UbJ4pMewJc",
    "bpm": 131
  },
  {
    "url": "6Ev82tOHzGwmzHO3vwCbrv",
    "bpm": 132
  },
  {
    "url": "6SsqBNO9FxtGrzJPVom49Q",
    "bpm": 133
  },
  {
    "url": "3l5EvxW2yok2deupSHxsG9",
    "bpm": 134
  },
  {
    "url": "3NOeDuUdj0zwT9cPVvchkK",
    "bpm": 135
  },
  {
    "url": "2ia0KdJCFmnqwHsVgHkYBK",
    "bpm": 136
  },
  {
    "url": "3FCSrDfmnF4KpODYsj9rSv",
    "bpm": 137
  },
  {
    "url": "7r400LaekwoXeHxCI8QYTy",
    "bpm": 138
  },
  {
    "url": "2QgGLof7BqJAmQlhatX553",
    "bpm": 139
  },
  {
    "url": "2kQQgXEIkxnOLFMS3vCxLq",
    "bpm": 140
  },
  {
    "url": "7o9GmdTeYYBppHX6XadDDO",
    "bpm": 141
  },
  {
    "url": "1upZf0MHnNt36fpZ4n7roa",
    "bpm": 142
  },
  {
    "url": "2wbVCMbaSv050umNBqmNOb",
    "bpm": 143
  },
  {
    "url": "5q4qwDFFwWoQzqbEcmBkPJ",
    "bpm": 144
  },
  {
    "url": "0j2iEmkD0XFpJQueeXuojP",
    "bpm": 145
  },
  {
    "url": "5mQyZBfA4Lln0StgOh1zR5",
    "bpm": 146
  },
  {
    "url": "6JftrkgvQO186vWSFn7Xyh",
    "bpm": 147
  },
  {
    "url": "0Ay6J2FM9vpE9puUVNo581",
    "bpm": 148
  },
  {
    "url": "3WISKlrGyli6JJlXuo64f6",
    "bpm": 149
  },
  {
    "url": "2vdrhdFNL8aT0rdFYlI1OO",
    "bpm": 150
  },
  {
    "url": "6hhK7NMiGTbBItdbJMC7lp",
    "bpm": 151
  },
  {
    "url": "2oybnWrVfRwgMloTEVIpQi",
    "bpm": 152
  },
  {
    "url": "0rqSTyB10UKiTEeWBktlNw",
    "bpm": 153
  },
  {
    "url": "1Q1zcV4Pg9KOyX0X18t73q",
    "bpm": 154
  },
  {
    "url": "60ZMFTNex3lWJVQgoM6uk3",
    "bpm": 155
  },
  {
    "url": "6XYWi1KOCGfTS5xEBYu4Hw",
    "bpm": 156
  },
  {
    "url": "4e7kumG0tAzBz0dSCLrYyk",
    "bpm": 157
  },
  {
    "url": "0oBst7Tae9F78u2emq5IjV",
    "bpm": 158
  },
  {
    "url": "0A1xn0R9jibRqbvvL2rfEb",
    "bpm": 159
  },
  {
    "url": "2MMVFgEyglioSCZRPgaLan",
    "bpm": 160
  },
  {
    "url": "2HchjcqbHpAwyMWuVaisMq",
    "bpm": 161
  },
  {
    "url": "4ZyeVN0CAjPeIhodgi85nn",
    "bpm": 162
  },
  {
    "url": "7wI0PFTw8uroWxcGpz0f43",
    "bpm": 163
  },
  {
    "url": "32KFs6AImASxDls4zKmJBS",
    "bpm": 164
  },
  {
    "url": "5NqOWsgwZ4kdMiE5R39Hoj",
    "bpm": 165
  },
  {
    "url": "1vd8O9lQKiLX6SlaqkAFaL",
    "bpm": 166
  },
  {
    "url": "7klvwkEgziz29DTGJLEYEB",
    "bpm": 167
  },
  {
    "url": "6zTEgYSS9FrFvv9ZytZi2c",
    "bpm": 168
  },
  {
    "url": "3gbaUi6cxIM0cR06a5rhvQ",
    "bpm": 169
  },
  {
    "url": "2zFYMJ8rVTmeRhxM54Gngl",
    "bpm": 170
  }
]
